graph digitization_insurance {
    ratio="fill";
    // size="8.3,11.7!";

    node [shape=record, fontsize=16, rankdir=LR];
    
    # PRESENTATION LAYER 0
    Presentation_layer [shape=house, sides=5, label="Presentation\nlayer", color="blue", style=filled]    

    # PRESENTATION LAYER 1
    Chatbot [label="{Chatbot}"]
    SMS [label="{SMS}"]
    Robo_advisor [label="{Robo advisor}"]
    Web_Browser [label="{Web Browser}"]
    Telephone [label="{Telephone}"]
    Mobile [label="{Mobile}"]

    subgraph cluster_Presentation_layer {
        shape=record
        Presentation_layer 
        subgraph cluster_Presentation_layer_1 {
            label="";
            rankdir=LR; 
            rank=same;
            style=dotted;
            Telephone; Robo_advisor; Mobile; SMS; Web_Browser; Chatbot;
        };        
    };
}