graph digitization_insurance {
    ratio="fill";
    // size="8.3,11.7!";
    
    node [shape=record, fontsize=16, rankdir=LR];

    # BUSINES LOGIC 4
    Business_Logic_Tier_4 [label="Business\nLogic Tier", shape=house, sides=5, color="red", style=filled]
    
    Quote [label="Quote"]
    Entreprise_services [label="Enterprises\nservices"]; 
    Policy [label="Policy"]; 
    Products [label="Products"];
    Claims [label="Claims"];
    Customers [label="Customers"];
    
    subgraph cluster_Business_Logic_Tier_4 {
        Business_Logic_Tier_4

        subgraph cluster_Business_Logic_Tier_4 {
            label="";
            rank=same;
            style=dotted;
            Quote; Policy; Products; Claims; Customers; Entreprise_services; 
        };
    };
}