digraph Scrapy_Spiders { 

    label="Scrapy spiders: Items, Data model v2020-12-27";

    graph [
    rankdir = "LR"
    ];
    
    edge [
    ];

    "WebsitesMetadataItem" [
    label = "<f0> WebsitesMetadataItem| 
    <f1> id |
    base |
    generator | 
    http_status |
    link |
    meta |
    script |
    style |
    title |
    <f_url> url  |
    modified |
    created "
    shape = "record"
    ];

    "WebsitesHtmlMetaPropertyItem"[
        label="<f0> WebsitesHtmlMetaPropertyItem | <f_url> url  
        | property
        | content "
        shape="record"
    ];

    "WebsitesHtmlMetaNameItem"[
        label="<f0> WebsitesHtmlMetaNameItem | <f_url> url  
        | name
        | content "
        shape="record"
    ];

    "WebsitesMetadataItem":f_url -> "WebsitesHtmlMetaPropertyItem":f_url [
    id = 0
    ];

    "WebsitesMetadataItem":f_url -> "WebsitesHtmlMetaNameItem":f_url [
    id = 0
    ];
}


