graph digitization_insurance {
    ratio="fill";
    // size="8.3,11.7!";
    node [shape=record, fontsize=16, rankdir=LR];

    # PRESENTATION LAYER 0
    Presentation_layer_2 [shape=house, sides=5, label="Presentation\nlayer", color="blue", style=filled]

    # PRESENTATION LAYER 2
    Broker_portal [label="Broker portal"]
    Customer_portal [label="Customer portal"]
    Call_centre [label="Call center"]
    Middle_office_work_station [label="Middle office\nwork"]
    Back_office_workstation [label="Back office\nworkstation"]

    subgraph cluster_Presentation_layer_2 {
        shape=record
        Presentation_layer_2 [label="Presentation\nlayer"] 
            subgraph cluster_Presentation_layer_2 {
                label="";
                rankdir=LR; 
                rank=same;
                style=dotted;
                Broker_portal; Customer_portal; Call_centre; Middle_office_work_station; Back_office_workstation;
            };
    };
}